{
  "Actor": {
    "types": [
      "pc","npc"
    ],
    "pc": {
      "name": "Tempo",
      "biography": "This is a big temporary bio"
    },
    "npc": {
      "name": "Tempo",
      "biography": "bio"
    },
    "derived": {
      "shock": {
        "value": 0,
        "min": 0,
        "max": 0
      },
      "wounds": {
        "value": 0,
        "min": 0,
        "max": 0
      }
    },
    "cosm": {
      "name": "",
      "axioms": {
        "magic": 0,
        "social": 0,
        "spirit": 0,
        "tech": 0
      }
    },
    "attributes": {
      "charisma": {
        "value": 0,
        "label": "Charisma",
        "modifier": []
      },
      "dexterity": {
        "value": 0,
        "label": "Dexterity",
        "modifier": []
      },
      "mind": {
        "value": 0,
        "label": "Mind",
        "modifier": []
      },
      "spirit": {
        "value": 0,
        "label": "Spirit",
        "modifier": []
      },
      "strength": {
        "value": 0,
        "label": "Strength",
        "modifier": []
      },
      "thoughness": {
        "value": 0,
        "label": "Toughness",
        "modifier": []
      }
    },
    "skills": {
      "intimidation": {
        "label": "Intimidation",
        "attribue": "spirit",
        "unskilled": false,
        "value": 0
      },
      "maneuver": {
        "label": "Maneuver",
        "attribue": "dexterity",
        "unskilled": false,
        "value": 0
      },
      "taunt": {
        "label": "Taunt",
        "attribue": "charisma",
        "unskilled": false,
        "value": 0
      },
      "trick": {
        "label": "Trick",
        "attribue": "mind",
        "unskilled": false,
        "value": 0
      },
      "dodge": {
        "label": "Dodge",
        "attribue": "dexterity",
        "unskilled": false,
        "value": 0
      },
      "energy weapons": {
        "label": "Energy Weapons",
        "attribue": "dexterity",
        "unskilled": false,
        "value": 0
      },
      "fire combat": {
        "label": "Fire Combat",
        "attribue": "dexterity",
        "unskilled": false,
        "value": 0
      },
      "heavy weapons": {
        "label": "Heavy Weapons",
        "attribue": "dexterity",
        "unskilled": true,
        "value": 0
      },
      "melee weapons": {
        "label": "Melee Weapons",
        "attribue": "dexterity",
        "unskilled": false,
        "value": 0
      },
      "missile weapons": {
        "label": "Missile Weapons",
        "attribue": "dexterity",
        "unskilled": false,
        "value": 0
      },
      "unarmed combat": {
        "label": "Unarmed Combat",
        "attribue": "dexterity",
        "unskilled": false,
        "value": 0
      },
      "alteration": {
        "label": "Alteration",
        "attribue": "mind",
        "unskilled": true,
        "value": 0
      },
      "apportation": {
        "label": "Apportation",
        "attribue": "spirit",
        "unskilled": true,
        "value": 0
      },
      "conjuration": {
        "label": "Conjuration",
        "attribue": "spirit",
        "unskilled": true,
        "value": 0
      },
      "divination": {
        "label": "Divination",
        "attribue": "mind",
        "unskilled": true,
        "value": 0
      },
      "faith": {
        "label": "Faith",
        "attribue": "spirit",
        "unskilled": false,
        "value": 0
      },
      "kinesis": {
        "label": "Kinesis",
        "attribue": "spirit",
        "unskilled": true,
        "value": 0
      },
      "precognition": {
        "label": "Precognition",
        "attribue": "mind",
        "unskilled": true,
        "value": 0
      },
      "telepathy": {
        "label": "Telepathy",
        "attribue": "charisma",
        "unskilled": true,
        "value": 0
      },
      "air vehicles": {
        "label": "Air Vehicles",
        "attribue": "dexterity",
        "unskilled": true,
        "value": 0
      },
      "beast riding": {
        "label": "Beast Riding",
        "attribue": "dexterity",
        "unskilled": false,
        "value": 0
      },
      "computers": {
        "label": "Computers",
        "attribue": "mind",
        "unskilled": false,
        "value": 0
      },
      "evidence analysis": {
        "label": "Evidence Analysis",
        "attribue": "mind",
        "unskilled": false,
        "value": 0
      },
      "find": {
        "label": "Find",
        "attribue": "mind",
        "unskilled": false,
        "value": 0
      },
      "first aid": {
        "label": "First Aid",
        "attribue": "mind",
        "unskilled": false,
        "value": 0
      },
      "land vehicles ": {
        "label": "Land Vehicles ",
        "attribue": "dexterity",
        "unskilled": false,
        "value": 0
      },
      "language": {
        "label": "Language",
        "attribue": "mind",
        "unskilled": true,
        "value": 0
      },
      "lockpicking": {
        "label": "Lockpicking",
        "attribue": "dexterity",
        "unskilled": true,
        "value": 0
      },
      "persuasion": {
        "label": "Persuasion",
        "attribue": "charisma",
        "unskilled": false,
        "value": 0
      },
      "profession": {
        "label": "Profession",
        "attribue": "mind",
        "unskilled": false,
        "value": 0
      },
      "reality": {
        "label": "Reality",
        "attribue": "spirit",
        "unskilled": false,
        "value": 0
      },
      "scholar": {
        "label": "Scholar",
        "attribue": "mind",
        "unskilled": false,
        "value": 0
      },
      "science": {
        "label": "Science",
        "attribue": "mind",
        "unskilled": false,
        "value": 0
      },
      "stealth": {
        "label": "Stealth",
        "attribue": "dexterity",
        "unskilled": false,
        "value": 0
      },
      "streetwise": {
        "label": "Streetwise",
        "attribue": "charisma",
        "unskilled": false,
        "value": 0
      },
      "survival": {
        "label": "Survival",
        "attribue": "mind",
        "unskilled": false,
        "value": 0
      },
      "water vehicles": {
        "label": "Water Vehicles",
        "attribue": "dexterity",
        "unskilled": false,
        "value": 0
      },
      "willpower": {
        "label": "Willpower",
        "attribue": "spirit",
        "unskilled": false,
        "value": 0
      }
    }
  },
  "Item": {
    "types": [
      "item"
    ],
    "item": {
      "description": "",
      "quantity": 1,
      "weight": 0,
      "attributes": {}
    }
  }
}